Aim was 0, forward was 5, Change in depth was 0 to new 0
Aim was 29, forward was 7, Change in depth was 203 to new 203
Aim was 26, forward was 6, Change in depth was 156 to new 359
Aim was 28, forward was 5, Change in depth was 140 to new 499
Aim was 35, forward was 4, Change in depth was 140 to new 639
Aim was 37, forward was 5, Change in depth was 185 to new 824
Aim was 50, forward was 1, Change in depth was 50 to new 874
Aim was 50, forward was 6, Change in depth was 300 to new 1174
Aim was 46, forward was 3, Change in depth was 138 to new 1312
Aim was 46, forward was 6, Change in depth was 276 to new 1588
Aim was 46, forward was 1, Change in depth was 46 to new 1634
Aim was 46, forward was 4, Change in depth was 184 to new 1818
Aim was 43, forward was 1, Change in depth was 43 to new 1861
Aim was 43, forward was 4, Change in depth was 172 to new 2033
Aim was 52, forward was 4, Change in depth was 208 to new 2241
Aim was 52, forward was 8, Change in depth was 416 to new 2657
Aim was 44, forward was 5, Change in depth was 220 to new 2877
Aim was 45, forward was 5, Change in depth was 225 to new 3102
Aim was 49, forward was 1, Change in depth was 49 to new 3151
Aim was 49, forward was 7, Change in depth was 343 to new 3494
Aim was 50, forward was 8, Change in depth was 400 to new 3894
Aim was 54, forward was 2, Change in depth was 108 to new 4002
Aim was 54, forward was 7, Change in depth was 378 to new 4380
Aim was 54, forward was 9, Change in depth was 486 to new 4866
Aim was 53, forward was 7, Change in depth was 371 to new 5237
Aim was 53, forward was 6, Change in depth was 318 to new 5555
Aim was 61, forward was 2, Change in depth was 122 to new 5677
Aim was 61, forward was 5, Change in depth was 305 to new 5982
Aim was 61, forward was 4, Change in depth was 244 to new 6226
Aim was 67, forward was 6, Change in depth was 402 to new 6628
Aim was 91, forward was 5, Change in depth was 455 to new 7083
Aim was 91, forward was 4, Change in depth was 364 to new 7447
Aim was 98, forward was 4, Change in depth was 392 to new 7839
Aim was 100, forward was 4, Change in depth was 400 to new 8239
Aim was 100, forward was 3, Change in depth was 300 to new 8539
Aim was 100, forward was 4, Change in depth was 400 to new 8939
Aim was 100, forward was 9, Change in depth was 900 to new 9839
Aim was 100, forward was 6, Change in depth was 600 to new 10439
Aim was 100, forward was 8, Change in depth was 800 to new 11239
Aim was 101, forward was 2, Change in depth was 202 to new 11441
Aim was 101, forward was 7, Change in depth was 707 to new 12148
Aim was 98, forward was 2, Change in depth was 196 to new 12344
Aim was 97, forward was 6, Change in depth was 582 to new 12926
Aim was 97, forward was 4, Change in depth was 388 to new 13314
Aim was 102, forward was 7, Change in depth was 714 to new 14028
Aim was 94, forward was 5, Change in depth was 470 to new 14498
Aim was 94, forward was 8, Change in depth was 752 to new 15250
Aim was 102, forward was 6, Change in depth was 612 to new 15862
Aim was 102, forward was 8, Change in depth was 816 to new 16678
Aim was 113, forward was 6, Change in depth was 678 to new 17356
Aim was 104, forward was 4, Change in depth was 416 to new 17772
Aim was 104, forward was 8, Change in depth was 832 to new 18604
Aim was 108, forward was 8, Change in depth was 864 to new 19468
Aim was 125, forward was 7, Change in depth was 875 to new 20343
Aim was 134, forward was 7, Change in depth was 938 to new 21281
Aim was 134, forward was 8, Change in depth was 1072 to new 22353
Aim was 134, forward was 4, Change in depth was 536 to new 22889
Aim was 134, forward was 9, Change in depth was 1206 to new 24095
Aim was 141, forward was 4, Change in depth was 564 to new 24659
Aim was 154, forward was 3, Change in depth was 462 to new 25121
Aim was 154, forward was 5, Change in depth was 770 to new 25891
Aim was 154, forward was 7, Change in depth was 1078 to new 26969
Aim was 154, forward was 9, Change in depth was 1386 to new 28355
Aim was 154, forward was 5, Change in depth was 770 to new 29125
Aim was 154, forward was 8, Change in depth was 1232 to new 30357
Aim was 154, forward was 6, Change in depth was 924 to new 31281
Aim was 154, forward was 4, Change in depth was 616 to new 31897
Aim was 154, forward was 6, Change in depth was 924 to new 32821
Aim was 154, forward was 7, Change in depth was 1078 to new 33899
Aim was 154, forward was 2, Change in depth was 308 to new 34207
Aim was 173, forward was 4, Change in depth was 692 to new 34899
Aim was 177, forward was 7, Change in depth was 1239 to new 36138
Aim was 160, forward was 1, Change in depth was 160 to new 36298
Aim was 167, forward was 9, Change in depth was 1503 to new 37801
Aim was 176, forward was 4, Change in depth was 704 to new 38505
Aim was 166, forward was 1, Change in depth was 166 to new 38671
Aim was 174, forward was 9, Change in depth was 1566 to new 40237
Aim was 180, forward was 6, Change in depth was 1080 to new 41317
Aim was 182, forward was 7, Change in depth was 1274 to new 42591
Aim was 178, forward was 7, Change in depth was 1246 to new 43837
Aim was 178, forward was 6, Change in depth was 1068 to new 44905
Aim was 185, forward was 5, Change in depth was 925 to new 45830
Aim was 174, forward was 9, Change in depth was 1566 to new 47396
Aim was 174, forward was 1, Change in depth was 174 to new 47570
Aim was 167, forward was 5, Change in depth was 835 to new 48405
Aim was 178, forward was 2, Change in depth was 356 to new 48761
Aim was 178, forward was 3, Change in depth was 534 to new 49295
Aim was 178, forward was 5, Change in depth was 890 to new 50185
Aim was 188, forward was 9, Change in depth was 1692 to new 51877
Aim was 191, forward was 3, Change in depth was 573 to new 52450
Aim was 192, forward was 8, Change in depth was 1536 to new 53986
Aim was 190, forward was 1, Change in depth was 190 to new 54176
Aim was 193, forward was 1, Change in depth was 193 to new 54369
Aim was 193, forward was 8, Change in depth was 1544 to new 55913
Aim was 196, forward was 8, Change in depth was 1568 to new 57481
Aim was 196, forward was 6, Change in depth was 1176 to new 58657
Aim was 206, forward was 2, Change in depth was 412 to new 59069
Aim was 214, forward was 6, Change in depth was 1284 to new 60353
Aim was 214, forward was 5, Change in depth was 1070 to new 61423
Aim was 214, forward was 2, Change in depth was 428 to new 61851
Aim was 214, forward was 6, Change in depth was 1284 to new 63135
Aim was 226, forward was 5, Change in depth was 1130 to new 64265
Aim was 233, forward was 8, Change in depth was 1864 to new 66129
Aim was 241, forward was 4, Change in depth was 964 to new 67093
Aim was 247, forward was 4, Change in depth was 988 to new 68081
Aim was 266, forward was 8, Change in depth was 2128 to new 70209
Aim was 266, forward was 1, Change in depth was 266 to new 70475
Aim was 276, forward was 3, Change in depth was 828 to new 71303
Aim was 276, forward was 7, Change in depth was 1932 to new 73235
Aim was 276, forward was 3, Change in depth was 828 to new 74063
Aim was 301, forward was 9, Change in depth was 2709 to new 76772
Aim was 301, forward was 4, Change in depth was 1204 to new 77976
Aim was 301, forward was 8, Change in depth was 2408 to new 80384
Aim was 313, forward was 4, Change in depth was 1252 to new 81636
Aim was 317, forward was 3, Change in depth was 951 to new 82587
Aim was 311, forward was 7, Change in depth was 2177 to new 84764
Aim was 306, forward was 3, Change in depth was 918 to new 85682
Aim was 313, forward was 7, Change in depth was 2191 to new 87873
Aim was 323, forward was 6, Change in depth was 1938 to new 89811
Aim was 327, forward was 3, Change in depth was 981 to new 90792
Aim was 327, forward was 1, Change in depth was 327 to new 91119
Aim was 370, forward was 1, Change in depth was 370 to new 91489
Aim was 370, forward was 5, Change in depth was 1850 to new 93339
Aim was 372, forward was 2, Change in depth was 744 to new 94083
Aim was 372, forward was 1, Change in depth was 372 to new 94455
Aim was 380, forward was 6, Change in depth was 2280 to new 96735
Aim was 383, forward was 4, Change in depth was 1532 to new 98267
Aim was 373, forward was 7, Change in depth was 2611 to new 100878
Aim was 373, forward was 4, Change in depth was 1492 to new 102370
Aim was 375, forward was 3, Change in depth was 1125 to new 103495
Aim was 372, forward was 5, Change in depth was 1860 to new 105355
Aim was 372, forward was 9, Change in depth was 3348 to new 108703
Aim was 377, forward was 2, Change in depth was 754 to new 109457
Aim was 377, forward was 5, Change in depth was 1885 to new 111342
Aim was 379, forward was 6, Change in depth was 2274 to new 113616
Aim was 386, forward was 5, Change in depth was 1930 to new 115546
Aim was 386, forward was 8, Change in depth was 3088 to new 118634
Aim was 398, forward was 9, Change in depth was 3582 to new 122216
Aim was 398, forward was 1, Change in depth was 398 to new 122614
Aim was 399, forward was 1, Change in depth was 399 to new 123013
Aim was 399, forward was 4, Change in depth was 1596 to new 124609
Aim was 430, forward was 8, Change in depth was 3440 to new 128049
Aim was 430, forward was 7, Change in depth was 3010 to new 131059
Aim was 430, forward was 7, Change in depth was 3010 to new 134069
Aim was 430, forward was 9, Change in depth was 3870 to new 137939
Aim was 417, forward was 1, Change in depth was 417 to new 138356
Aim was 435, forward was 9, Change in depth was 3915 to new 142271
Aim was 435, forward was 4, Change in depth was 1740 to new 144011
Aim was 435, forward was 6, Change in depth was 2610 to new 146621
Aim was 438, forward was 6, Change in depth was 2628 to new 149249
Aim was 445, forward was 7, Change in depth was 3115 to new 152364
Aim was 445, forward was 8, Change in depth was 3560 to new 155924
Aim was 447, forward was 5, Change in depth was 2235 to new 158159
Aim was 443, forward was 5, Change in depth was 2215 to new 160374
Aim was 439, forward was 5, Change in depth was 2195 to new 162569
Aim was 448, forward was 9, Change in depth was 4032 to new 166601
Aim was 448, forward was 2, Change in depth was 896 to new 167497
Aim was 448, forward was 8, Change in depth was 3584 to new 171081
Aim was 449, forward was 8, Change in depth was 3592 to new 174673
Aim was 448, forward was 3, Change in depth was 1344 to new 176017
Aim was 448, forward was 9, Change in depth was 4032 to new 180049
Aim was 450, forward was 2, Change in depth was 900 to new 180949
Aim was 463, forward was 5, Change in depth was 2315 to new 183264
Aim was 464, forward was 6, Change in depth was 2784 to new 186048
Aim was 461, forward was 1, Change in depth was 461 to new 186509
Aim was 479, forward was 6, Change in depth was 2874 to new 189383
Aim was 479, forward was 5, Change in depth was 2395 to new 191778
Aim was 479, forward was 1, Change in depth was 479 to new 192257
Aim was 472, forward was 5, Change in depth was 2360 to new 194617
Aim was 477, forward was 2, Change in depth was 954 to new 195571
Aim was 486, forward was 7, Change in depth was 3402 to new 198973
Aim was 478, forward was 7, Change in depth was 3346 to new 202319
Aim was 485, forward was 4, Change in depth was 1940 to new 204259
Aim was 498, forward was 8, Change in depth was 3984 to new 208243
Aim was 498, forward was 3, Change in depth was 1494 to new 209737
Aim was 498, forward was 7, Change in depth was 3486 to new 213223
Aim was 505, forward was 4, Change in depth was 2020 to new 215243
Aim was 506, forward was 3, Change in depth was 1518 to new 216761
Aim was 512, forward was 4, Change in depth was 2048 to new 218809
Aim was 512, forward was 7, Change in depth was 3584 to new 222393
Aim was 516, forward was 4, Change in depth was 2064 to new 224457
Aim was 519, forward was 2, Change in depth was 1038 to new 225495
Aim was 524, forward was 5, Change in depth was 2620 to new 228115
Aim was 527, forward was 6, Change in depth was 3162 to new 231277
Aim was 527, forward was 8, Change in depth was 4216 to new 235493
Aim was 527, forward was 3, Change in depth was 1581 to new 237074
Aim was 525, forward was 8, Change in depth was 4200 to new 241274
Aim was 525, forward was 9, Change in depth was 4725 to new 245999
Aim was 530, forward was 2, Change in depth was 1060 to new 247059
Aim was 539, forward was 4, Change in depth was 2156 to new 249215
Aim was 527, forward was 3, Change in depth was 1581 to new 250796
Aim was 521, forward was 6, Change in depth was 3126 to new 253922
Aim was 521, forward was 2, Change in depth was 1042 to new 254964
Aim was 534, forward was 3, Change in depth was 1602 to new 256566
Aim was 533, forward was 5, Change in depth was 2665 to new 259231
Aim was 533, forward was 9, Change in depth was 4797 to new 264028
Aim was 533, forward was 5, Change in depth was 2665 to new 266693
Aim was 538, forward was 3, Change in depth was 1614 to new 268307
Aim was 538, forward was 6, Change in depth was 3228 to new 271535
Aim was 538, forward was 5, Change in depth was 2690 to new 274225
Aim was 538, forward was 3, Change in depth was 1614 to new 275839
Aim was 550, forward was 8, Change in depth was 4400 to new 280239
Aim was 550, forward was 2, Change in depth was 1100 to new 281339
Aim was 550, forward was 4, Change in depth was 2200 to new 283539
Aim was 550, forward was 8, Change in depth was 4400 to new 287939
Aim was 551, forward was 8, Change in depth was 4408 to new 292347
Aim was 551, forward was 6, Change in depth was 3306 to new 295653
Aim was 557, forward was 2, Change in depth was 1114 to new 296767
Aim was 557, forward was 7, Change in depth was 3899 to new 300666
Aim was 557, forward was 2, Change in depth was 1114 to new 301780
Aim was 550, forward was 4, Change in depth was 2200 to new 303980
Aim was 563, forward was 5, Change in depth was 2815 to new 306795
Aim was 563, forward was 6, Change in depth was 3378 to new 310173
Aim was 571, forward was 3, Change in depth was 1713 to new 311886
Aim was 571, forward was 8, Change in depth was 4568 to new 316454
Aim was 552, forward was 8, Change in depth was 4416 to new 320870
Aim was 552, forward was 1, Change in depth was 552 to new 321422
Aim was 558, forward was 3, Change in depth was 1674 to new 323096
Aim was 558, forward was 3, Change in depth was 1674 to new 324770
Aim was 558, forward was 6, Change in depth was 3348 to new 328118
Aim was 563, forward was 5, Change in depth was 2815 to new 330933
Aim was 568, forward was 6, Change in depth was 3408 to new 334341
Aim was 600, forward was 1, Change in depth was 600 to new 334941
Aim was 604, forward was 3, Change in depth was 1812 to new 336753
Aim was 604, forward was 3, Change in depth was 1812 to new 338565
Aim was 606, forward was 8, Change in depth was 4848 to new 343413
Aim was 606, forward was 3, Change in depth was 1818 to new 345231
Aim was 606, forward was 2, Change in depth was 1212 to new 346443
Aim was 606, forward was 5, Change in depth was 3030 to new 349473
Aim was 611, forward was 5, Change in depth was 3055 to new 352528
Aim was 634, forward was 3, Change in depth was 1902 to new 354430
Aim was 634, forward was 5, Change in depth was 3170 to new 357600
Aim was 636, forward was 7, Change in depth was 4452 to new 362052
Aim was 636, forward was 4, Change in depth was 2544 to new 364596
Aim was 631, forward was 1, Change in depth was 631 to new 365227
Aim was 628, forward was 8, Change in depth was 5024 to new 370251
Aim was 637, forward was 4, Change in depth was 2548 to new 372799
Aim was 637, forward was 4, Change in depth was 2548 to new 375347
Aim was 632, forward was 2, Change in depth was 1264 to new 376611
Aim was 632, forward was 9, Change in depth was 5688 to new 382299
Aim was 632, forward was 4, Change in depth was 2528 to new 384827
Aim was 642, forward was 1, Change in depth was 642 to new 385469
Aim was 644, forward was 8, Change in depth was 5152 to new 390621
Aim was 652, forward was 3, Change in depth was 1956 to new 392577
Aim was 659, forward was 9, Change in depth was 5931 to new 398508
Aim was 659, forward was 6, Change in depth was 3954 to new 402462
Aim was 658, forward was 3, Change in depth was 1974 to new 404436
Aim was 653, forward was 6, Change in depth was 3918 to new 408354
Aim was 673, forward was 5, Change in depth was 3365 to new 411719
Aim was 673, forward was 3, Change in depth was 2019 to new 413738
Aim was 666, forward was 7, Change in depth was 4662 to new 418400
Aim was 651, forward was 3, Change in depth was 1953 to new 420353
Aim was 632, forward was 5, Change in depth was 3160 to new 423513
Aim was 632, forward was 5, Change in depth was 3160 to new 426673
Aim was 640, forward was 6, Change in depth was 3840 to new 430513
Aim was 640, forward was 7, Change in depth was 4480 to new 434993
Aim was 654, forward was 7, Change in depth was 4578 to new 439571
Aim was 666, forward was 8, Change in depth was 5328 to new 444899
Aim was 652, forward was 8, Change in depth was 5216 to new 450115
Aim was 652, forward was 2, Change in depth was 1304 to new 451419
Aim was 652, forward was 4, Change in depth was 2608 to new 454027
Aim was 667, forward was 8, Change in depth was 5336 to new 459363
Aim was 667, forward was 6, Change in depth was 4002 to new 463365
Aim was 670, forward was 7, Change in depth was 4690 to new 468055
Aim was 670, forward was 4, Change in depth was 2680 to new 470735
Aim was 671, forward was 5, Change in depth was 3355 to new 474090
Aim was 654, forward was 3, Change in depth was 1962 to new 476052
Aim was 655, forward was 5, Change in depth was 3275 to new 479327
Aim was 655, forward was 5, Change in depth was 3275 to new 482602
Aim was 654, forward was 4, Change in depth was 2616 to new 485218
Aim was 652, forward was 9, Change in depth was 5868 to new 491086
Aim was 681, forward was 3, Change in depth was 2043 to new 493129
Aim was 676, forward was 2, Change in depth was 1352 to new 494481
Aim was 679, forward was 7, Change in depth was 4753 to new 499234
Aim was 668, forward was 6, Change in depth was 4008 to new 503242
Aim was 663, forward was 5, Change in depth was 3315 to new 506557
Aim was 677, forward was 3, Change in depth was 2031 to new 508588
Aim was 694, forward was 9, Change in depth was 6246 to new 514834
Aim was 694, forward was 1, Change in depth was 694 to new 515528
Aim was 692, forward was 4, Change in depth was 2768 to new 518296
Aim was 692, forward was 7, Change in depth was 4844 to new 523140
Aim was 692, forward was 4, Change in depth was 2768 to new 525908
Aim was 694, forward was 6, Change in depth was 4164 to new 530072
Aim was 694, forward was 2, Change in depth was 1388 to new 531460
Aim was 694, forward was 7, Change in depth was 4858 to new 536318
Aim was 703, forward was 8, Change in depth was 5624 to new 541942
Aim was 703, forward was 3, Change in depth was 2109 to new 544051
Aim was 696, forward was 5, Change in depth was 3480 to new 547531
Aim was 696, forward was 9, Change in depth was 6264 to new 553795
Aim was 700, forward was 1, Change in depth was 700 to new 554495
Aim was 691, forward was 2, Change in depth was 1382 to new 555877
Aim was 694, forward was 1, Change in depth was 694 to new 556571
Aim was 694, forward was 3, Change in depth was 2082 to new 558653
Aim was 694, forward was 8, Change in depth was 5552 to new 564205
Aim was 713, forward was 4, Change in depth was 2852 to new 567057
Aim was 713, forward was 1, Change in depth was 713 to new 567770
Aim was 709, forward was 3, Change in depth was 2127 to new 569897
Aim was 727, forward was 3, Change in depth was 2181 to new 572078
Aim was 727, forward was 1, Change in depth was 727 to new 572805
Aim was 727, forward was 9, Change in depth was 6543 to new 579348
Aim was 737, forward was 9, Change in depth was 6633 to new 585981
Aim was 737, forward was 3, Change in depth was 2211 to new 588192
Aim was 741, forward was 9, Change in depth was 6669 to new 594861
Aim was 741, forward was 5, Change in depth was 3705 to new 598566
Aim was 736, forward was 2, Change in depth was 1472 to new 600038
Aim was 733, forward was 8, Change in depth was 5864 to new 605902
Aim was 736, forward was 5, Change in depth was 3680 to new 609582
Aim was 736, forward was 5, Change in depth was 3680 to new 613262
Aim was 735, forward was 7, Change in depth was 5145 to new 618407
Aim was 731, forward was 9, Change in depth was 6579 to new 624986
Aim was 731, forward was 9, Change in depth was 6579 to new 631565
Aim was 730, forward was 7, Change in depth was 5110 to new 636675
Aim was 757, forward was 6, Change in depth was 4542 to new 641217
Aim was 764, forward was 3, Change in depth was 2292 to new 643509
Aim was 759, forward was 1, Change in depth was 759 to new 644268
Aim was 752, forward was 3, Change in depth was 2256 to new 646524
Aim was 774, forward was 2, Change in depth was 1548 to new 648072
Aim was 770, forward was 7, Change in depth was 5390 to new 653462
Aim was 770, forward was 5, Change in depth was 3850 to new 657312
Aim was 770, forward was 8, Change in depth was 6160 to new 663472
Aim was 770, forward was 7, Change in depth was 5390 to new 668862
Aim was 763, forward was 4, Change in depth was 3052 to new 671914
Aim was 765, forward was 1, Change in depth was 765 to new 672679
Aim was 765, forward was 3, Change in depth was 2295 to new 674974
Aim was 768, forward was 4, Change in depth was 3072 to new 678046
Aim was 771, forward was 3, Change in depth was 2313 to new 680359
Aim was 777, forward was 6, Change in depth was 4662 to new 685021
Aim was 798, forward was 9, Change in depth was 7182 to new 692203
Aim was 803, forward was 1, Change in depth was 803 to new 693006
Aim was 799, forward was 7, Change in depth was 5593 to new 698599
Aim was 807, forward was 1, Change in depth was 807 to new 699406
Aim was 807, forward was 9, Change in depth was 7263 to new 706669
Aim was 807, forward was 7, Change in depth was 5649 to new 712318
Aim was 808, forward was 2, Change in depth was 1616 to new 713934
Aim was 822, forward was 3, Change in depth was 2466 to new 716400
Aim was 814, forward was 6, Change in depth was 4884 to new 721284
Aim was 822, forward was 7, Change in depth was 5754 to new 727038
Aim was 817, forward was 4, Change in depth was 3268 to new 730306
Aim was 826, forward was 9, Change in depth was 7434 to new 737740
Aim was 826, forward was 9, Change in depth was 7434 to new 745174
Aim was 829, forward was 5, Change in depth was 4145 to new 749319
Aim was 829, forward was 1, Change in depth was 829 to new 750148
Aim was 840, forward was 7, Change in depth was 5880 to new 756028
Aim was 844, forward was 3, Change in depth was 2532 to new 758560
Aim was 847, forward was 8, Change in depth was 6776 to new 765336
Aim was 847, forward was 2, Change in depth was 1694 to new 767030
Aim was 847, forward was 6, Change in depth was 5082 to new 772112
Aim was 838, forward was 2, Change in depth was 1676 to new 773788
Aim was 847, forward was 2, Change in depth was 1694 to new 775482
Aim was 848, forward was 9, Change in depth was 7632 to new 783114
Aim was 843, forward was 4, Change in depth was 3372 to new 786486
Aim was 832, forward was 9, Change in depth was 7488 to new 793974
Aim was 843, forward was 2, Change in depth was 1686 to new 795660
Aim was 851, forward was 2, Change in depth was 1702 to new 797362
Aim was 853, forward was 9, Change in depth was 7677 to new 805039
Aim was 858, forward was 8, Change in depth was 6864 to new 811903
Aim was 871, forward was 9, Change in depth was 7839 to new 819742
Aim was 871, forward was 2, Change in depth was 1742 to new 821484
Aim was 872, forward was 6, Change in depth was 5232 to new 826716
Aim was 882, forward was 7, Change in depth was 6174 to new 832890
Aim was 882, forward was 1, Change in depth was 882 to new 833772
Aim was 878, forward was 5, Change in depth was 4390 to new 838162
Aim was 893, forward was 7, Change in depth was 6251 to new 844413
Aim was 893, forward was 3, Change in depth was 2679 to new 847092
Aim was 894, forward was 6, Change in depth was 5364 to new 852456
Aim was 894, forward was 3, Change in depth was 2682 to new 855138
Aim was 894, forward was 3, Change in depth was 2682 to new 857820
Aim was 894, forward was 7, Change in depth was 6258 to new 864078

Horizontal distance: 1857
Depth:  864078
Total distance: 1604592846
